<?xml version="1.0" standalone="no"?>
<svg xmlns="http://www.w3.org/2000/svg" width="70" height="70">
<path stroke-width="28" stroke="#000" stroke-dasharray="6" d="M16,68V2m19,36v12m0,24v18m19,0V2"/>
</svg>